{
  "project_info": {
    "project_number": "241130274373",
    "project_id": "elgin-inn",
    "storage_bucket": "elgin-inn.appspot.com"
  },
  "client": [
    {
      "client_info": {
        "mobilesdk_app_id": "1:241130274373:android:4066fc71fb510de6622d2c",
        "android_client_info": {
          "package_name": "au.com.elgininn.app"
        }
      },
      "oauth_client": [
        {
          "client_id": "241130274373-qtmacrthlem40tsoahbn61r10juhquck.apps.googleusercontent.com",
          "client_type": 3
        }
      ],
      "api_key": [
        {
          "current_key": "AIzaSyDf3E4Tmm2IBHSC9Wy0P1T9oLML--pXpaY"
        }
      ],
      "services": {
        "appinvite_service": {
          "other_platform_oauth_client": [
            {
              "client_id": "241130274373-qtmacrthlem40tsoahbn61r10juhquck.apps.googleusercontent.com",
              "client_type": 3
            },
            {
              "client_id": "241130274373-8slbbc3n9jpgnd4p07ob7b1egm1jhubf.apps.googleusercontent.com",
              "client_type": 2,
              "ios_info": {
                "bundle_id": "au.com.elgininn.app"
              }
            }
          ]
        }
      }
    }
  ],
  "configuration_version": "1"
}